<?xml version="1.0"?>
<robot xmlns:xacro="http://www.ros.org/wiki/xacro" name="sticky_man" >

<xacro:property name="true_l_torso"  value="$(arg true_l_torso)" />
<xacro:property name="true_l_shoulder"  value="$(arg true_l_shoulder)" />
<xacro:property name="true_l_uarm"  value="$(arg true_l_uarm)" />
<xacro:property name="true_l_farm"  value="$(arg true_l_farm)" />
<xacro:property name="true_l_hand"  value="$(arg true_l_hand)" />
<xacro:property name="cpa_l_torso"  value="$(arg cpa_l_torso)" />
<xacro:property name="cpa_l_shoulder"  value="$(arg cpa_l_shoulder)" />
<xacro:property name="cpa_l_uarm"  value="$(arg cpa_l_uarm)" />
<xacro:property name="cpa_l_farm"  value="$(arg cpa_l_farm)" />
<xacro:property name="cpa_l_hand"  value="$(arg cpa_l_hand)" />
<xacro:property name="subject_height"  value="$(arg subject_height)" />
<xacro:property name="seg_length_mode"  value="$(arg seg_length_mode)" />
<xacro:property name="seat_type"  value="$(arg seat_type)" />
<xacro:property name="h_seat" value="0.445"/>

<xacro:if value="${seat_type == 'low'}">
    <xacro:property name="h_seat" value="0.445"/>
</xacro:if>

<xacro:if value="${seat_type == 'high'}">
    <xacro:property name="h_seat" value="0.609"/>
</xacro:if>


<xacro:if value="${seg_length_mode == 'full_measure'}">
    <xacro:property name="l_torso" value="${true_l_torso+0.044*subject_height}"/>
    <xacro:property name="l_shoulder" value="${true_l_shoulder}"/>
    <xacro:property name="l_uarm" value="${true_l_uarm}"/>
    <xacro:property name="l_farm" value="${true_l_farm}"/>
    <xacro:property name="l_hand" value="${true_l_hand}"/>
</xacro:if>

<xacro:if value="${seg_length_mode == 'height_measure_m'}">
    <xacro:property name="l_torso" value="${0.294*subject_height}"/>
    <xacro:property name="l_shoulder" value="${0.257*subject_height}"/>
    <xacro:property name="l_uarm" value="${0.194*subject_height}"/>
    <xacro:property name="l_farm" value="${0.153*subject_height}"/>
    <xacro:property name="l_hand" value="${0.0366*subject_height}"/>
</xacro:if>

<xacro:if value="${seg_length_mode == 'height_measure_f'}">
    <xacro:property name="l_torso" value="${0.290*subject_height}"/>
    <xacro:property name="l_shoulder" value="${0.250*subject_height}"/>
    <xacro:property name="l_uarm" value="${0.191*subject_height}"/>
    <xacro:property name="l_farm" value="${0.146*subject_height}"/>
    <xacro:property name="l_hand" value="${0.037*subject_height}"/>
</xacro:if>


<xacro:if value="${seg_length_mode == 'cpa'}">
    <xacro:property name="l_torso" value="${cpa_l_torso+0.044*subject_height}"/>
    <xacro:property name="l_shoulder" value="${cpa_l_shoulder}"/>
    <xacro:property name="l_uarm" value="${cpa_l_uarm}"/>
    <xacro:property name="l_farm" value="${cpa_l_farm}"/>
    <xacro:property name="l_hand" value="${cpa_l_hand}"/>
</xacro:if>


  <material name="blue">
   <color rgba="0 0 0.8 1"/>
  </material>

  <material name="white">
   <color rgba="1 1 1 1"/>
  </material>

  <material name="silver">
    <color rgba="0.75 0.75 0.75 1"/>
  </material>

  <material name="red">
    <color rgba="1 0 0 1"/>
  </material>

  <material name="green">
    <color rgba="0 1 0 1"/>
  </material>

  <link name="frame0"/>

  <joint name="frame0_to_hip" type="fixed">
    <parent link="frame0"/>
    <child link="hip"/>
    <origin xyz="0 0 ${h_seat}"/>
  </joint>

  <link name="hip">
    <visual>
      <geometry>
        <cylinder length="0.250" radius="0.01"/>
      </geometry>
      <material name="silver" />
      <origin rpy="1.5708 0 0" xyz="0 0 0"/>
    </visual>
  </link>

  <joint name="hip_to_waist" type="fixed">
    <parent link="hip"/>
    <child link="waist"/>
    <origin xyz="0 0 0"/>
  </joint>

  <link name="waist">
    <visual>
      <geometry>
        <cylinder length="${(0.047*subject_height+0.04)}" radius="0.01"/>
      </geometry>
      <material name="silver" />
      <origin rpy="0 0 0" xyz="0 0 ${(0.047*subject_height+0.04)/2}"/>
    </visual>
  </link>

  <joint name="waist_flextion" type="continuous">
    <parent link="waist"/>
    <child link="waist_flextion"/>
    <origin rpy="0 0 0" xyz="0 0 ${(0.047*subject_height+0.04)}"/>
    <axis rpy="0 0 0" xyz="0 1 0"/>
  </joint>

  <link name="waist_flextion">
  <visual>
    <geometry>
      <sphere radius="0.015"/>
    </geometry>
    <material name="silver" />
    <origin rpy="0 0 0" xyz="0 0 0"/>
  </visual>
</link>

<joint name="waist_lateral_bending" type="continuous">
  <parent link="waist_flextion"/>
  <child link="waist_lateral_bending"/>
  <origin rpy="0 0 0" xyz="0 0 0"/>
  <axis rpy="0 0 0" xyz="1 0 0"/>
  <!-- <limit effort="1000" lower="-2" upper="2" velocity="10"/> -->
</joint>

<link name="waist_lateral_bending">
<visual>
  <geometry>
    <sphere radius="0.01"/>
  </geometry>
  <material name="silver" />
  <origin rpy="0 0 0" xyz="0 0 0"/>
</visual>
</link>

<joint name="waist_rotation" type="continuous">
  <parent link="waist_lateral_bending"/>
  <child link="torso"/>
  <origin rpy="0 0 0" xyz="0 0 0"/>
  <axis rpy="0 0 0" xyz="0 0 1"/>
</joint>

<link name="torso">
  <visual>
    <geometry>
      <cylinder length="${l_torso}" radius="0.01"/>
    </geometry>
    <material name="silver" />
    <origin rpy="0 0 0" xyz="0 0 ${l_torso/2}"/>
  </visual>
</link>

<joint name="tosro_to_shoulder" type="fixed">
  <parent link="torso"/>
  <child link="shoulder"/>
  <origin rpy="0 0 0" xyz="0 0 ${l_torso}"/>
</joint>

<link name="shoulder">
  <visual>
    <geometry>
      <cylinder length="${l_shoulder/2}" radius="0.01"/>
    </geometry>
    <material name="silver" />
    <origin rpy="1.5708 0 0" xyz="0 -${l_shoulder/4} 0"/>
  </visual>
</link>

<joint name="right_shoulder_abduction" type="continuous">
  <parent link="shoulder"/>
  <child link="right_shoulder_abduction"/>
  <origin rpy="0 0 0" xyz="0 -${l_shoulder/2} 0"/>
  <axis rpy="0 0 0" xyz="1 0 0"/>
</joint>

<link name="right_shoulder_abduction">
  <visual>
    <geometry>
      <sphere radius="0.01"/>
    </geometry>
    <material name="silver" />
    <origin rpy="0 0 0" xyz="0 0 0"/>
  </visual>
</link>


<joint name="right_shoulder_ver_flextion" type="continuous">
  <parent link="right_shoulder_abduction"/>
  <child link="right_shoulder_ver_flextion"/>
  <axis xyz="0 1 0"/>
  <origin rpy="0 0 0" />
</joint>

<link name="right_shoulder_ver_flextion">
  <visual>
    <geometry>
      <sphere radius="0.015"/>
    </geometry>
    <material name="dark_green" />
    <origin rpy="0 0 0" xyz="0 0 0"/>
  </visual>
</link>

<joint name="right_shoulder_hor_flextion" type="continuous">
  <parent link="right_shoulder_ver_flextion"/>
  <child link="right_upperarm"/>
  <axis xyz="0 0 1"/>
  <origin rpy="0 0 0" />
</joint>

<link name="right_upperarm">
  <visual>
    <geometry>
      <cylinder length="${l_uarm}" radius="0.01"/>
    </geometry>
    <material name="blue" />
    <origin rpy="1.5708 0 0" xyz="0 -${l_uarm/2} 0"/>
  </visual>
</link>

<joint name="right_elbow_flextion" type="continuous">
  <parent link="right_upperarm"/>
  <child link="right_elbow_flextion"/>
  <origin rpy="0 0 0" xyz="0 -${l_uarm} 0"/>
  <axis xyz="0 0 1"/>
</joint>

<link name="right_elbow_flextion">
<visual>
  <geometry>
    <sphere radius="0.01"/>
  </geometry>
  <material name="blue" />
  <origin rpy="0 0 0" xyz="0 0 0"/>
</visual>
</link>


<joint name="right_elbow_supination" type="continuous">
  <parent link="right_elbow_flextion"/>
  <child link="right_lowerarm"/>
  <axis xyz="0 1 0"/>
  <origin rpy="0 0 0"/>
</joint>

<link name="right_lowerarm">
  <visual>
    <geometry>
      <cylinder length="${l_farm}" radius="0.01"/>
    </geometry>
    <material name="red" />
    <origin rpy="1.5708 0 0" xyz="0 -${l_farm/2} 0"/>
  </visual>
</link>


<joint name="right_hand_rad_deviation" type="continuous">
  <parent link="right_lowerarm"/>
  <child link="right_hand_rad_deviation"/>
  <origin rpy="0 0 0" xyz="0 -${l_farm} 0"/>
  <axis xyz="0 0 1"/>
</joint>

<link name="right_hand_rad_deviation">
  <visual>
    <geometry>
      <sphere radius="0.01"/>
    </geometry>
    <material name="green" />
    <origin rpy="0 0 0" xyz="0 0 0"/>
  </visual>
</link>

<joint name="right_hand_flextion" type="continuous">
  <parent link="right_hand_rad_deviation"/>
  <child link="right_hand"/>
  <origin rpy="0 0 0"/>
  <axis xyz="1 0 0"/>

</joint>

<link name="right_hand">
  <visual>
    <geometry>
      <cylinder length="${l_hand}" radius="0.01"/>
    </geometry>
    <material name="green" />
    <origin rpy="-1.5708 0 0" xyz="0 -${l_hand/2} 0"/>
  </visual>
</link>

<joint name="EE_1" type="continuous">
  <parent link="right_hand"/>
  <child link="ee"/>
  <origin rpy="-1.5708 0 -1.5708" xyz="0 -${l_hand} 0"/>
  <axis xyz="0 1 0"/>
</joint>

<link name="ee">
<visual>
  <geometry>
    <cylinder length="0.20" radius="0.01"/>
  </geometry>
  <material name="red" />
    <origin rpy="0 1.5807 0" xyz="0 0 0"/>
</visual>
</link>




</robot>
