<?xml version="1.0"?>
<robot xmlns:xacro="http://www.ros.org/wiki/xacro" name="sticky_man" >
<xacro:property name="particle_num"  value="$(arg particle_num)" />
<xacro:property name="l_seat_to_hip" value="$(arg hip_to_seat)"/>
<xacro:property name="l_torso" value="$(arg true_l_torso)"/>
<xacro:property name="l_shoulder" value="$(arg true_l_shoulder)"/>
<xacro:property name="l_uarm" value="$(arg true_l_uarm)"/>
<xacro:property name="l_farm" value="$(arg true_l_farm)"/>
<xacro:property name="l_hand" value="$(arg true_l_hand)"/>
<xacro:property name="seat_type"  value="$(arg seat_type)" />





  <xacro:if value="${seat_type == 'low'}">
      <xacro:property name="h_seat" value="0.445"/>
  </xacro:if>

  <xacro:if value="${seat_type == 'high'}">
      <xacro:property name="h_seat" value="0.609"/>
  </xacro:if>



  <material name="blue">
   <color rgba="0 0 1 1"/>
  </material>

  <material name="white">
   <color rgba="0 1 0 1"/>
  </material>

  <material name="silver">
    <color rgba="0.75 0.75 0.75 1"/>
  </material>

  <material name="red">
    <color rgba="1 0 0 1"/>
  </material>

  <material name="green">
    <color rgba="0 1 0 1"/>
  </material>

  <material name="dark_green">
    <color rgba="0 0.6 0 1"/>
  </material>

  <material name="black">
    <color rgba="0 0 0 1"/>
  </material>

  <link name="frame0"/>

  <joint name="${particle_num}_frame0_to_pelvis" type="fixed">
    <parent link="frame0"/>
    <child link="${particle_num}_pelvis"/>
    <origin xyz="0 0 ${h_seat}"/>
  </joint>

  <link name="${particle_num}_pelvis">
    <visual>
      <geometry>
        <cylinder length="0.250" radius="0.01"/>
      </geometry>
      <!-- <material name="green" /> -->
      <origin rpy="1.5708 0 0" xyz="0 0 0"/>
    </visual>
  </link>

  <joint name="${particle_num}_pelvis_to_waist" type="fixed">
    <parent link="${particle_num}_pelvis"/>
    <child link="${particle_num}_waist"/>
    <origin xyz="0 0 0"/>
  </joint>

  <link name="${particle_num}_waist">
    <visual>
      <geometry>
        <cylinder length="${l_seat_to_hip}" radius="0.01"/>
      </geometry>
      <!-- <material name="green" /> -->
      <origin rpy="0 0 0" xyz="0 0 ${l_seat_to_hip/2}"/>
    </visual>
  </link>

  <joint name="${particle_num}_hip_flextion" type="continuous">
    <parent link="${particle_num}_waist"/>
    <child link="${particle_num}_hip_flextion"/>
    <origin rpy="0 0 0" xyz="0 0 ${l_seat_to_hip}"/>
    <axis rpy="0 0 0" xyz="0 1 0"/>
  </joint>

  <link name="${particle_num}_hip_flextion">
    <visual>
      <geometry>
        <sphere radius="0.015"/>
      </geometry>
      <material name="dark_green" />
      <origin rpy="0 0 0" xyz="0 0 0"/>
    </visual>
  </link>

  <joint name="${particle_num}_hip_lateral_bending" type="continuous">
    <parent link="${particle_num}_hip_flextion"/>
    <child link="${particle_num}_hip_lateral_bending"/>
    <origin rpy="0 0 0" xyz="0 0 0"/>
    <axis rpy="0 0 0" xyz="1 0 0"/>
    <!-- <limit effort="1000" lower="-2" upper="2" velocity="10"/> -->
  </joint>

  <link name="${particle_num}_hip_lateral_bending">
    <visual>
    <geometry>
      <sphere radius="0.015"/>
    </geometry>
    <material name="dark_green" />
    <origin rpy="0 0 0" xyz="0 0 0"/>
    </visual>
  </link>

  <joint name="${particle_num}_hip_rotation" type="continuous">
    <parent link="${particle_num}_hip_lateral_bending"/>
    <child link="${particle_num}_torso"/>
    <origin rpy="0 0 0" xyz="0 0 0"/>
    <axis rpy="0 0 0" xyz="0 0 1"/>
    <!-- <limit effort="1000" lower="-0.52" upper="0.52" velocity="10"/> -->
  </joint>

  <link name="${particle_num}_torso">
  <visual>
    <geometry>
      <cylinder length="${l_torso}" radius="0.01"/>
    </geometry>
    <material name="green" />
    <origin rpy="0 0 0" xyz="0 0 ${l_torso/2}"/>
  </visual>
  </link>


  <joint name="${particle_num}_torso_to_shoulder" type="fixed">
    <parent link="${particle_num}_torso"/>
    <child link="${particle_num}_shoulder"/>
    <origin rpy="0 0 0" xyz="0 0 ${l_torso}"/>
  </joint>

  <link name="${particle_num}_shoulder">
    <visual>
      <geometry>
        <cylinder length="${(l_shoulder+0.03)/2}" radius="0.01"/>
      </geometry>
      <material name="green" />
      <origin rpy="1.5708 0 0" xyz="0 -${(l_shoulder+0.03)/4} 0"/>
    </visual>
  </link>

  <joint name="${particle_num}_right_shoulder_abduction" type="continuous">
    <parent link="${particle_num}_shoulder"/>
    <child link="${particle_num}_right_shoulder_abduction"/>
    <origin rpy="0 0 0" xyz="0 -${(l_shoulder+0.03)/2} 0"/>
    <axis rpy="0 0 0" xyz="1 0 0"/>
  </joint>

  <link name="${particle_num}_right_shoulder_abduction">
    <visual>
      <geometry>
        <sphere radius="0.015"/>
      </geometry>
      <material name="dark_green" />
      <origin rpy="0 0 0" xyz="0 0 0"/>
    </visual>
  </link>


  <joint name="${particle_num}_right_shoulder_ver_flextion" type="continuous">
    <parent link="${particle_num}_right_shoulder_abduction"/>
    <child link="${particle_num}_right_shoulder_ver_flextion"/>
    <axis xyz="0 1 0"/>
    <origin rpy="0 0 0" />
  </joint>

  <link name="${particle_num}_right_shoulder_ver_flextion" >
    <visual>
      <geometry>
        <sphere radius="0.015"/>
      </geometry>
      <material name="dark_green" />
      <origin rpy="0 0 0" xyz="0 0 0"/>
    </visual>
  </link>

  <joint name="${particle_num}_right_shoulder_hor_flextion" type="continuous">
    <parent link="${particle_num}_right_shoulder_ver_flextion"/>
    <child link="${particle_num}_right_upperarm"/>
    <axis xyz="0 0 1"/>
    <origin rpy="0 0 0" />
  </joint>

  <link name="${particle_num}_right_upperarm">
    <visual>
      <geometry>
        <cylinder length="${l_uarm}" radius="0.01"/>
      </geometry>
      <material name="green" />
      <origin rpy="1.5708 0 0" xyz="0 -${l_uarm/2} 0"/>
    </visual>
  </link>

  <joint name="${particle_num}_right_elbow_flextion" type="continuous">
    <parent link="${particle_num}_right_upperarm"/>
    <child link="${particle_num}_right_elbow_flextion"/>
    <origin rpy="0 0 0" xyz="0 -${l_uarm} 0"/>
    <axis xyz="0 0 1"/>
  </joint>

  <link name="${particle_num}_right_elbow_flextion">
  <visual>
    <geometry>
      <sphere radius="0.015"/>
    </geometry>
    <material name="dark_green" />
    <origin rpy="0 0 0" xyz="0 0 0"/>
  </visual>
  </link>


  <joint name="${particle_num}_right_elbow_supination" type="continuous">
    <parent link="${particle_num}_right_elbow_flextion"/>
    <child link="${particle_num}_right_lowerarm"/>
    <axis xyz="0 1 0"/>
    <origin rpy="0 0 0"/>
  </joint>

  <link name="${particle_num}_right_lowerarm">
    <visual>
      <geometry>
        <cylinder length="${l_farm}" radius="0.01"/>
      </geometry>
      <material name="green" />
      <origin rpy="1.5708 0 0" xyz="0 -${l_farm/2} 0"/>
    </visual>
  </link>


  <joint name="${particle_num}_right_hand_rad_deviation" type="continuous">
    <parent link="${particle_num}_right_lowerarm"/>
    <child link="${particle_num}_right_hand_rad_deviation"/>
    <origin rpy="0 0 0" xyz="0 -${l_farm} 0"/>
    <axis xyz="0 0 1"/>
  </joint>

  <link name="${particle_num}_right_hand_rad_deviation">
    <visual>
      <geometry>
        <sphere radius="0.015"/>
      </geometry>
      <material name="dark_green" />
      <origin rpy="0 0 0" xyz="0 0 0"/>
    </visual>
  </link>

  <joint name="${particle_num}_right_hand_flextion" type="continuous">
    <parent link="${particle_num}_right_hand_rad_deviation"/>
    <child link="${particle_num}_right_hand"/>
    <origin rpy="0 0 0"/>
    <axis xyz="1 0 0"/>

  </joint>

  <link name="${particle_num}_right_hand">
    <visual>
      <geometry>
        <cylinder length="${l_hand}" radius="0.01"/>
      </geometry>
      <material name="green" />
      <origin rpy="-1.5708 0 0" xyz="0 -${l_hand/2} 0"/>
    </visual>
  </link>



  <joint name="${particle_num}_EE_1" type="fixed">
    <parent link="${particle_num}_right_hand"/>
    <child link="${particle_num}_stylus"/>
    <origin rpy="0 0 0" xyz="0 -${l_hand} 0"/>
    <axis xyz="0 0 1"/>
  </joint>

  <link name="${particle_num}_stylus">
  <visual>
    <geometry>
      <cylinder length="0.2" radius="0.005"/>
    </geometry>
    <material name="black" />
    <origin rpy="0 1.5708 0" xyz="0 0 0"/>
  </visual>
  </link>






</robot>
