,,,CPA,,,,,Full Measurement,,,,,Height Measurement,,,,,Mocap,,,,
Subject Num,Subject Name,Subject Height,torso,shoulder,uarm,farm,hand,torso,shoulder,uarm,farm,hand,torso,shoulder,uarm,farm,hand,torso,shoulder,uarm,farm,hand
1,Navid,1.72,0.475,0.368,0.331,0.256,0.066,0.476,0.352,0.33,0.259,0.066,0.50568,0.44204,0.33368,0.26316,0.062952,0.576,0.305,0.329,0.218,0.066
2,Sarvenaz,1.68,0.479,0.38,0.308,0.241,0.069,0.412,0.334,0.293,0.257,0.067,0.4872,0.42,0.32088,0.24528,0.06216,0.53,0.309,0.315,0.204,0.067
4,Roya,1.5,0.395,0.366,0.263,0.216,0.07,0.411,0.31,0.237,0.211,0.065,0.435,0.375,0.2865,0.219,0.0555,0.483,0.386,0.256,0.185,0.065
5,David,1.92,0.497,0.394,0.308,0.272,0.077,0.48,0.416,0.31,0.28,0.075,0.56448,0.49344,0.37248,0.29376,0.070272,0.565,0.374,0.328,0.227,0.075
7,Elnaz,1.53,0.396,0.298,0.284,0.221,0.062,0.371,0.284,0.304,0.221,0.061,0.4437,0.3825,0.29223,0.22338,0.05661,0.472,0.282,0.284,0.193,0.061
9,Rebbeca,1.57,0.39,0.31,0.273,0.21,0.073,0.36,0.324,0.294,0.234,0.068,0.4553,0.3925,0.29987,0.22922,0.05809,0.47,0.296,0.287,0.193,0.068
11,Saman,1.69,0.424,0.34,0.297,0.217,0.094,0.406,0.334,0.314,0.232,0.08,0.49686,0.43433,0.32786,0.25857,0.061854,0.5,0.294,0.304,0.202,0.08
15,Amir,1.69,0.478,0.4,0.304,0.226,0.068,0.466,0.346,0.318,0.269,0.064,0.49686,0.43433,0.32786,0.25857,0.061854,0.58,0.368,0.303,0.22,0.064
,,,,,,,,,,,,,,,,,,,,,,
,,,,,,,,,,,,,,,,,,,,,,
,,,,,,,,,,,,,,,,,,,,,,
,,,,,,,,,,,,,,,,,,,,,,
,,,CPA,,,,,Mocap,,,,,Height Measurement,,,,,Full Measurement,,,,
Subject Num,Subject Name,Subject Height,torso,shoulder,uarm,farm,hand,torso,shoulder,uarm,farm,hand,torso,shoulder,uarm,farm,hand,torso,shoulder,uarm,farm,hand
1,Navid,1.72,0.475,0.368,0.331,0.256,0.066,0.576,0.305,0.329,0.218,0.066,0.50568,0.44204,0.33368,0.26316,0.062952,0.476,0.352,0.33,0.259,0.066
2,Sarvenaz,1.68,0.479,0.38,0.308,0.241,0.069,0.53,0.309,0.315,0.204,0.067,0.4872,0.42,0.32088,0.24528,0.06216,0.412,0.334,0.293,0.257,0.067
4,Roya,1.5,0.395,0.366,0.263,0.216,0.07,0.483,0.386,0.256,0.185,0.065,0.435,0.375,0.2865,0.219,0.0555,0.411,0.31,0.237,0.211,0.065
5,David,1.92,0.497,0.394,0.308,0.272,0.077,0.565,0.374,0.328,0.227,0.075,0.56448,0.49344,0.37248,0.29376,0.070272,0.48,0.416,0.31,0.28,0.075
7,Elnaz,1.53,0.396,0.298,0.284,0.221,0.062,0.472,0.282,0.284,0.193,0.061,0.4437,0.3825,0.29223,0.22338,0.05661,0.371,0.284,0.304,0.221,0.061
9,Rebbeca,1.57,0.39,0.31,0.273,0.21,0.073,0.47,0.296,0.287,0.193,0.068,0.4553,0.3925,0.29987,0.22922,0.05809,0.36,0.324,0.294,0.234,0.068
11,Saman,1.69,0.424,0.34,0.297,0.217,0.094,0.5,0.294,0.304,0.202,0.08,0.49686,0.43433,0.32786,0.25857,0.061854,0.406,0.334,0.314,0.232,0.08
15,Amir,1.69,0.478,0.4,0.304,0.226,0.068,0.58,0.368,0.303,0.22,0.064,0.49686,0.43433,0.32786,0.25857,0.061854,0.466,0.346,0.318,0.269,0.064
